Homework #5
…
American Vodkas are the most sold liquor in Ames by volume by far. This is followed distantly by Canadian Whiskies and then Straight Bourbon Whiskies, Spiced Rum, and American Flavored Vodka.

4: Find the daily liquor sales in Ames in 2019. Summarize the number of sales, volume of liquor sold, and amount of money spent.

daily_sales <- dat %>% group_by(Month, Day, Year) %>% summarize(num_sales = n(), gallons_sold = sum(`Volume Sold (Gallons)`),money_spent = sum(`Sale (Dollars)`))
daily_sales

## # A tibble: 157 x 6
## # Groups:   Month, Day [157]
##    Month   Day  Year num_sales gallons_sold money_spent
##    <dbl> <dbl> <dbl>     <int>        <dbl>       <dbl>
##  1     1     3  2019       957       1795.      112009.
##  2     1     4  2019       143        331.       16766.
##  3     1     9  2019       944       1773.       99703.
##  4     1    10  2019         2         35.6       1457.
##  5     1    11  2019       177        317.       16481.
##  6     1    16  2019       912       2168.      118597.
##  7     1    18  2019        62         60.8       4483.
##  8     1    24  2019      1221       2434.      139658.
##  9     1    25  2019       253        614.       31893.
## 10     1    30  2019      1082       2306.      127225.
## #  with 147 more rows
…
